type=DAEMON_START msg=audit(1661358743.266:2032): op=start ver=2.8.5 format=raw kernel=5.13.0-1029-aws auid=4294967295 pid=2797 uid=0 ses=4294967295 subj=unconfined  res=success
type=CONFIG_CHANGE msg=audit(1661358743.274:34): op=set audit_backlog_limit=8192 old=64 auid=4294967295 ses=4294967295 subj=unconfined res=1
type=SYSCALL msg=audit(1661358743.274:34): arch=c000003e syscall=44 success=yes exit=56 a0=3 a1=7ffe2b354ed0 a2=38 a3=0 items=0 ppid=2801 pid=2811 auid=4294967295 uid=0 gid=0 euid=0 suid=0 fsuid=0 egid=0 sgid=0 fsgid=0 tty=(none) ses=4294967295 comm="auditctl" exe="/usr/sbin/auditctl" subj=unconfined key=(null)
type=PROCTITLE msg=audit(1661358743.274:34): proctitle=2F7362696E2F617564697463746C002D52002F6574632F61756469742F61756469742E72756C6573
type=CONFIG_CHANGE msg=audit(1661358743.274:35): op=set audit_failure=1 old=1 auid=4294967295 ses=4294967295 subj=unconfined res=1
type=SYSCALL msg=audit(1661358743.274:35): arch=c000003e syscall=44 success=yes exit=56 a0=3 a1=7ffe2b354ed0 a2=38 a3=0 items=0 ppid=2801 pid=2811 auid=4294967295 uid=0 gid=0 euid=0 suid=0 fsuid=0 egid=0 sgid=0 fsgid=0 tty=(none) ses=4294967295 comm="auditctl" exe="/usr/sbin/auditctl" subj=unconfined key=(null)
type=PROCTITLE msg=audit(1661358743.274:35): proctitle=2F7362696E2F617564697463746C002D52002F6574632F61756469742F61756469742E72756C6573
type=CONFIG_CHANGE msg=audit(1661358743.274:36): op=set audit_backlog_wait_time=0 old=15000 auid=4294967295 ses=4294967295 subj=unconfined res=1
type=SYSCALL msg=audit(1661358743.274:36): arch=c000003e syscall=44 success=yes exit=56 a0=3 a1=7ffe2b354ed0 a2=38 a3=0 items=0 ppid=2801 pid=2811 auid=4294967295 uid=0 gid=0 euid=0 suid=0 fsuid=0 egid=0 sgid=0 fsgid=0 tty=(none) ses=4294967295 comm="auditctl" exe="/usr/sbin/auditctl" subj=unconfined key=(null)
type=PROCTITLE msg=audit(1661358743.274:36): proctitle=2F7362696E2F617564697463746C002D52002F6574632F61756469742F61756469742E72756C6573
type=SERVICE_START msg=audit(1661358743.274:37): pid=1 uid=0 auid=4294967295 ses=4294967295 subj=unconfined msg='unit=auditd comm="systemd" exe="/usr/lib/systemd/systemd" hostname=? addr=? terminal=? res=success'
type=UNKNOWN[1334] msg=audit(1661358743.318:38): prog-id=62 op=UNLOAD
type=UNKNOWN[1334] msg=audit(1661358743.318:39): prog-id=61 op=UNLOAD
type=UNKNOWN[1334] msg=audit(1661358743.322:40): prog-id=58 op=UNLOAD
type=UNKNOWN[1334] msg=audit(1661358743.322:41): prog-id=57 op=UNLOAD
type=UNKNOWN[1334] msg=audit(1661358743.326:42): prog-id=60 op=UNLOAD
type=UNKNOWN[1334] msg=audit(1661358743.326:43): prog-id=59 op=UNLOAD
type=UNKNOWN[1334] msg=audit(1661358743.554:44): prog-id=63 op=LOAD
type=UNKNOWN[1334] msg=audit(1661358743.558:45): prog-id=64 op=LOAD
type=UNKNOWN[1334] msg=audit(1661358743.574:46): prog-id=65 op=LOAD
type=UNKNOWN[1334] msg=audit(1661358743.574:47): prog-id=66 op=LOAD
type=UNKNOWN[1334] msg=audit(1661358743.578:48): prog-id=67 op=LOAD
type=UNKNOWN[1334] msg=audit(1661358743.578:49): prog-id=68 op=LOAD
type=USER_END msg=audit(1661358746.470:50): pid=2614 uid=0 auid=1000 ses=1 subj=unconfined msg='op=PAM:session_close grantors=pam_env,pam_env,pam_permit,pam_umask,pam_unix acct="root" exe="/usr/bin/sudo" hostname=? addr=? terminal=/dev/pts/0 res=success'
type=CRED_DISP msg=audit(1661358746.470:51): pid=2614 uid=0 auid=1000 ses=1 subj=unconfined msg='op=PAM:setcred grantors=pam_permit acct="root" exe="/usr/bin/sudo" hostname=? addr=? terminal=/dev/pts/0 res=success'
type=USER_ACCT msg=audit(1661358768.570:52): pid=2983 uid=1000 auid=1000 ses=1 subj=unconfined msg='op=PAM:accounting grantors=pam_permit acct="ubuntu" exe="/usr/bin/sudo" hostname=? addr=? terminal=/dev/pts/0 res=success'
type=USER_CMD msg=audit(1661358768.570:53): pid=2983 uid=1000 auid=1000 ses=1 subj=unconfined msg='cwd="/home/ubuntu" cmd=61707420757064617465 terminal=pts/0 res=success'
type=CRED_REFR msg=audit(1661358768.574:54): pid=2983 uid=0 auid=1000 ses=1 subj=unconfined msg='op=PAM:setcred grantors=pam_permit,pam_cap acct="root" exe="/usr/bin/sudo" hostname=? addr=? terminal=/dev/pts/0 res=success'
type=USER_START msg=audit(1661358768.574:55): pid=2983 uid=0 auid=1000 ses=1 subj=unconfined msg='op=PAM:session_open grantors=pam_env,pam_env,pam_permit,pam_umask,pam_unix acct="root" exe="/usr/bin/sudo" hostname=? addr=? terminal=/dev/pts/0 res=success'
type=USER_END msg=audit(1661358771.082:56): pid=2983 uid=0 auid=1000 ses=1 subj=unconfined msg='op=PAM:session_close grantors=pam_env,pam_env,pam_permit,pam_umask,pam_unix acct="root" exe="/usr/bin/sudo" hostname=? addr=? terminal=/dev/pts/0 res=success'
type=CRED_DISP msg=audit(1661358771.082:57): pid=2983 uid=0 auid=1000 ses=1 subj=unconfined msg='op=PAM:setcred grantors=pam_permit acct="root" exe="/usr/bin/sudo" hostname=? addr=? terminal=/dev/pts/0 res=success'
type=USER_ACCT msg=audit(1661358777.253:58): pid=3325 uid=1000 auid=1000 ses=1 subj=unconfined msg='op=PAM:accounting grantors=pam_permit acct="ubuntu" exe="/usr/bin/sudo" hostname=? addr=? terminal=/dev/pts/0 res=success'
type=USER_CMD msg=audit(1661358777.257:59): pid=3325 uid=1000 auid=1000 ses=1 subj=unconfined msg='cwd="/home/ubuntu" cmd=6170742D67657420696E7374616C6C20617564697464 terminal=pts/0 res=success'
type=CRED_REFR msg=audit(1661358777.257:60): pid=3325 uid=0 auid=1000 ses=1 subj=unconfined msg='op=PAM:setcred grantors=pam_permit,pam_cap acct="root" exe="/usr/bin/sudo" hostname=? addr=? terminal=/dev/pts/0 res=success'
type=USER_START msg=audit(1661358777.257:61): pid=3325 uid=0 auid=1000 ses=1 subj=unconfined msg='op=PAM:session_open grantors=pam_env,pam_env,pam_permit,pam_umask,pam_unix acct="root" exe="/usr/bin/sudo" hostname=? addr=? terminal=/dev/pts/0 res=success'
type=USER_END msg=audit(1661358777.901:62): pid=3325 uid=0 auid=1000 ses=1 subj=unconfined msg='op=PAM:session_close grantors=pam_env,pam_env,pam_permit,pam_umask,pam_unix acct="root" exe="/usr/bin/sudo" hostname=? addr=? terminal=/dev/pts/0 res=success'
type=CRED_DISP msg=audit(1661358777.901:63): pid=3325 uid=0 auid=1000 ses=1 subj=unconfined msg='op=PAM:setcred grantors=pam_permit acct="root" exe="/usr/bin/sudo" hostname=? addr=? terminal=/dev/pts/0 res=success'
type=USER_AUTH msg=audit(1661358835.072:64): pid=3397 uid=1000 auid=1000 ses=1 subj=unconfined msg='op=PAM:authentication grantors=? acct="ubuntu" exe="/usr/lib/policykit-1/polkit-agent-helper-1" hostname=ip-172-31-34-1 addr=? terminal=pts/0 res=failed'
type=USER_ACCT msg=audit(1661358874.444:65): pid=3400 uid=1000 auid=1000 ses=1 subj=unconfined msg='op=PAM:accounting grantors=pam_permit acct="ubuntu" exe="/usr/bin/sudo" hostname=? addr=? terminal=/dev/pts/0 res=success'
type=USER_CMD msg=audit(1661358874.444:66): pid=3400 uid=1000 auid=1000 ses=1 subj=unconfined msg='cwd="/home/ubuntu" cmd=7365727669636520617564697464207374617274 terminal=pts/0 res=success'
type=CRED_REFR msg=audit(1661358874.444:67): pid=3400 uid=0 auid=1000 ses=1 subj=unconfined msg='op=PAM:setcred grantors=pam_permit,pam_cap acct="root" exe="/usr/bin/sudo" hostname=? addr=? terminal=/dev/pts/0 res=success'
type=USER_START msg=audit(1661358874.444:68): pid=3400 uid=0 auid=1000 ses=1 subj=unconfined msg='op=PAM:session_open grantors=pam_env,pam_env,pam_permit,pam_umask,pam_unix acct="root" exe="/usr/bin/sudo" hostname=? addr=? terminal=/dev/pts/0 res=success'
type=USER_END msg=audit(1661358875.300:69): pid=3400 uid=0 auid=1000 ses=1 subj=unconfined msg='op=PAM:session_close grantors=pam_env,pam_env,pam_permit,pam_umask,pam_unix acct="root" exe="/usr/bin/sudo" hostname=? addr=? terminal=/dev/pts/0 res=success'
type=CRED_DISP msg=audit(1661358875.300:70): pid=3400 uid=0 auid=1000 ses=1 subj=unconfined msg='op=PAM:setcred grantors=pam_permit acct="root" exe="/usr/bin/sudo" hostname=? addr=? terminal=/dev/pts/0 res=success'
type=SERVICE_START msg=audit(1661358922.803:71): pid=1 uid=0 auid=4294967295 ses=4294967295 subj=unconfined msg='unit=ua-timer comm="systemd" exe="/usr/lib/systemd/systemd" hostname=? addr=? terminal=? res=success'
type=SERVICE_STOP msg=audit(1661358922.803:72): pid=1 uid=0 auid=4294967295 ses=4294967295 subj=unconfined msg='unit=ua-timer comm="systemd" exe="/usr/lib/systemd/systemd" hostname=? addr=? terminal=? res=success'
type=USER_ACCT msg=audit(1661358973.866:73): pid=3420 uid=1000 auid=1000 ses=1 subj=unconfined msg='op=PAM:accounting grantors=pam_permit acct="ubuntu" exe="/usr/bin/sudo" hostname=? addr=? terminal=/dev/pts/0 res=success'
type=USER_CMD msg=audit(1661358973.866:74): pid=3420 uid=1000 auid=1000 ses=1 subj=unconfined msg='cwd="/home/ubuntu" cmd=617564697463746C202D6C terminal=pts/0 res=success'
type=CRED_REFR msg=audit(1661358973.870:75): pid=3420 uid=0 auid=1000 ses=1 subj=unconfined msg='op=PAM:setcred grantors=pam_permit,pam_cap acct="root" exe="/usr/bin/sudo" hostname=? addr=? terminal=/dev/pts/0 res=success'
type=USER_START msg=audit(1661358973.870:76): pid=3420 uid=0 auid=1000 ses=1 subj=unconfined msg='op=PAM:session_open grantors=pam_env,pam_env,pam_permit,pam_umask,pam_unix acct="root" exe="/usr/bin/sudo" hostname=? addr=? terminal=/dev/pts/0 res=success'
type=USER_END msg=audit(1661358973.870:77): pid=3420 uid=0 auid=1000 ses=1 subj=unconfined msg='op=PAM:session_close grantors=pam_env,pam_env,pam_permit,pam_umask,pam_unix acct="root" exe="/usr/bin/sudo" hostname=? addr=? terminal=/dev/pts/0 res=success'
type=CRED_DISP msg=audit(1661358973.870:78): pid=3420 uid=0 auid=1000 ses=1 subj=unconfined msg='op=PAM:setcred grantors=pam_permit acct="root" exe="/usr/bin/sudo" hostname=? addr=? terminal=/dev/pts/0 res=success'
type=SERVICE_STOP msg=audit(1661359072.118:79): pid=1 uid=0 auid=4294967295 ses=4294967295 subj=unconfined msg='unit=packagekit comm="systemd" exe="/usr/lib/systemd/systemd" hostname=? addr=? terminal=? res=success'
type=SERVICE_START msg=audit(1661359130.441:80): pid=1 uid=0 auid=4294967295 ses=4294967295 subj=unconfined msg='unit=systemd-tmpfiles-clean comm="systemd" exe="/usr/lib/systemd/systemd" hostname=? addr=? terminal=? res=success'
type=SERVICE_STOP msg=audit(1661359130.441:81): pid=1 uid=0 auid=4294967295 ses=4294967295 subj=unconfined msg='unit=systemd-tmpfiles-clean comm="systemd" exe="/usr/lib/systemd/systemd" hostname=? addr=? terminal=? res=success'
type=USER_ACCT msg=audit(1661359136.201:82): pid=3436 uid=1000 auid=1000 ses=1 subj=unconfined msg='op=PAM:accounting grantors=pam_permit acct="ubuntu" exe="/usr/bin/sudo" hostname=? addr=? terminal=/dev/pts/0 res=success'
type=USER_CMD msg=audit(1661359136.201:83): pid=3436 uid=1000 auid=1000 ses=1 subj=unconfined msg='cwd="/home/ubuntu" cmd=617564697463746C202D73 terminal=pts/0 res=success'
type=CRED_REFR msg=audit(1661359136.201:84): pid=3436 uid=0 auid=1000 ses=1 subj=unconfined msg='op=PAM:setcred grantors=pam_permit,pam_cap acct="root" exe="/usr/bin/sudo" hostname=? addr=? terminal=/dev/pts/0 res=success'
type=USER_START msg=audit(1661359136.201:85): pid=3436 uid=0 auid=1000 ses=1 subj=unconfined msg='op=PAM:session_open grantors=pam_env,pam_env,pam_permit,pam_umask,pam_unix acct="root" exe="/usr/bin/sudo" hostname=? addr=? terminal=/dev/pts/0 res=success'
type=USER_END msg=audit(1661359136.205:86): pid=3436 uid=0 auid=1000 ses=1 subj=unconfined msg='op=PAM:session_close grantors=pam_env,pam_env,pam_permit,pam_umask,pam_unix acct="root" exe="/usr/bin/sudo" hostname=? addr=? terminal=/dev/pts/0 res=success'
type=CRED_DISP msg=audit(1661359136.205:87): pid=3436 uid=0 auid=1000 ses=1 subj=unconfined msg='op=PAM:setcred grantors=pam_permit acct="root" exe="/usr/bin/sudo" hostname=? addr=? terminal=/dev/pts/0 res=success'
type=USER_ACCT msg=audit(1661359440.476:88): pid=3477 uid=1000 auid=1000 ses=1 subj=unconfined msg='op=PAM:accounting grantors=pam_permit acct="ubuntu" exe="/usr/bin/sudo" hostname=? addr=? terminal=/dev/pts/0 res=success'
type=USER_CMD msg=audit(1661359440.476:89): pid=3477 uid=1000 auid=1000 ses=1 subj=unconfined msg='cwd="/home/ubuntu/auditd-parser/auditd-parser-proj" cmd=61707420696E7374616C6C20707974686F6E332D706970 terminal=pts/0 res=success'
type=CRED_REFR msg=audit(1661359440.476:90): pid=3477 uid=0 auid=1000 ses=1 subj=unconfined msg='op=PAM:setcred grantors=pam_permit,pam_cap acct="root" exe="/usr/bin/sudo" hostname=? addr=? terminal=/dev/pts/0 res=success'
type=USER_START msg=audit(1661359440.476:91): pid=3477 uid=0 auid=1000 ses=1 subj=unconfined msg='op=PAM:session_open grantors=pam_env,pam_env,pam_permit,pam_umask,pam_unix acct="root" exe="/usr/bin/sudo" hostname=? addr=? terminal=/dev/pts/0 res=success'
type=SERVICE_START msg=audit(1661359474.047:92): pid=1 uid=0 auid=4294967295 ses=4294967295 subj=unconfined msg='unit=packagekit comm="systemd" exe="/usr/lib/systemd/systemd" hostname=? addr=? terminal=? res=success'
type=USER_END msg=audit(1661359476.419:93): pid=3477 uid=0 auid=1000 ses=1 subj=unconfined msg='op=PAM:session_close grantors=pam_env,pam_env,pam_permit,pam_umask,pam_unix acct="root" exe="/usr/bin/sudo" hostname=? addr=? terminal=/dev/pts/0 res=success'
type=CRED_DISP msg=audit(1661359476.419:94): pid=3477 uid=0 auid=1000 ses=1 subj=unconfined msg='op=PAM:setcred grantors=pam_permit acct="root" exe="/usr/bin/sudo" hostname=? addr=? terminal=/dev/pts/0 res=success'